…
``` r
library(tidyverse)
library(survival)
library(KMsurv)
library(knitr)
library(car)
```

``` r
hmohiv<-read_csv(file.path(data_directory, "hmohiv.csv"))
attach(hmohiv)
hmohiv
```

    ## # A tibble: 100 x 7
    ##       ID  time   age  drug censor  entdate  enddate
    ##    <int> <int> <int> <int>  <int>    <chr>    <chr>
    ##  1     1     5    46     0      1  5/15/90 10/14/90
    ##  2     2     6    35     1      0  9/19/89  3/20/90
    ##  3     3     8    30     1      1  4/21/91 12/20/91
    ##  4     4     3    30     1      1   1/3/91   4/4/91
    ##  5     5    22    36     0      1  9/18/89  7/19/91
    ##  6     6     1    32     1      0  3/18/91  4/17/91
    ##  7     7     7    36     1      1 11/11/89  6/11/90
    ##  8     8     9    31     1      1 11/25/89  8/25/90
    ##  9     9     3    48     0      1  2/11/91  5/13/91
    ## 10    10    12    47     0      1  8/11/89  8/11/90
    ## # ... with 90 more rows
…
